created_at,entry_id,field1,field2
2019-03-12 03:59:42 UTC,1,30.5,33
2019-03-12 04:00:03 UTC,2,30.5,33
2019-03-12 04:00:25 UTC,3,30.6,33
2019-03-12 04:00:48 UTC,4,7.3,34
2019-03-12 04:01:09 UTC,5,7.3,34
2019-03-12 04:01:31 UTC,6,7.2,35
2019-03-12 04:01:52 UTC,7,7.8,34
2019-03-12 04:02:14 UTC,8,7.8,35
2019-03-12 04:02:36 UTC,9,7.9,33
2019-03-12 04:02:58 UTC,10,7.8,33
2019-03-12 04:03:20 UTC,11,7.3,33
2019-03-12 04:03:42 UTC,12,7.3,34
2019-03-12 04:04:55 UTC,13,7.3,35
2019-03-12 04:05:16 UTC,14,7.5,35
2019-03-12 04:06:53 UTC,15,7.7,35
2019-03-12 04:07:14 UTC,16,7.2,35
2019-03-12 04:07:35 UTC,17,7.5,34
2019-03-12 04:07:57 UTC,18,7.6,33
2019-03-12 04:08:18 UTC,19,6.7,33
2019-03-12 04:08:40 UTC,20,6.7,34
2019-03-12 04:09:01 UTC,21,6.5,40
2019-03-12 04:09:23 UTC,22,6.5,45
2019-03-12 04:09:45 UTC,23,6.5,42
2019-03-12 04:10:06 UTC,24,6.5,42
2019-03-12 04:10:28 UTC,25,6.7,42
2019-03-12 04:10:49 UTC,26,6.7,39
2019-03-12 04:11:11 UTC,27,6.7,39
2019-03-12 04:11:32 UTC,28,6.5,39
2019-03-12 04:11:54 UTC,29,6.6,34
2019-03-12 04:12:16 UTC,30,6.6,34
2019-03-12 04:12:38 UTC,31,6.6,34
2019-03-12 04:12:59 UTC,32,6.6,33
2019-03-12 04:13:21 UTC,33,6.6,35
2019-03-12 04:13:42 UTC,34,6.1,36
2019-03-12 04:14:04 UTC,35,6.5,33
2019-03-12 04:14:26 UTC,36,6.5,40
2019-03-12 04:14:48 UTC,37,6.8,40
2019-03-12 04:15:09 UTC,38,6.8,42
2019-03-12 04:15:31 UTC,39,6.5,39
2019-03-12 04:15:52 UTC,40,6.5,46
2019-03-12 04:16:13 UTC,41,6.5,42
2019-03-12 04:16:35 UTC,42,6.8,42
2019-03-12 04:16:56 UTC,43,6.8,39
2019-03-12 04:17:17 UTC,44,6.9,39
2019-03-12 04:17:38 UTC,45,6.6,40
2019-03-12 04:18:00 UTC,46,6.5,34
2019-03-12 04:18:21 UTC,47,6.5,35
2019-03-12 04:18:42 UTC,48,6.3,33
2019-03-12 04:19:04 UTC,49,6.2,36
2019-03-12 04:19:25 UTC,50,6.3,33
2019-03-12 04:19:47 UTC,51,6.3,33
2019-03-12 04:20:08 UTC,52,6.5,34
2019-03-12 04:20:29 UTC,53,6.5,35
2019-03-12 04:20:50 UTC,54,6.2,35
2019-03-12 04:21:12 UTC,55,6.2,34
2019-03-12 04:21:33 UTC,56,6.2,46
2019-03-12 04:21:54 UTC,57,6.8,39
2019-03-12 04:22:39 UTC,58,6.8,41
2019-03-12 04:23:01 UTC,59,6.8,41
2019-03-12 04:23:22 UTC,60,6.8,43
2019-03-12 04:23:44 UTC,61,6.4,42
2019-03-12 04:24:06 UTC,62,6.4,36
2019-03-12 04:24:28 UTC,63,6.4,37
2019-03-12 04:24:50 UTC,64,6.4,35
2019-03-12 04:25:11 UTC,65,6.4,33
2019-03-12 04:25:32 UTC,66,7.2,37
2019-03-12 04:25:54 UTC,67,7,33
2019-03-12 04:26:15 UTC,68,7.5,36
2019-03-12 04:26:36 UTC,69,7.5,35
2019-03-12 04:26:58 UTC,70,7.2,33
2019-03-12 04:27:19 UTC,71,7.3,34
2019-03-12 04:27:40 UTC,72,7.3,34
2019-03-12 04:28:02 UTC,73,7.2,33
2019-03-12 04:28:23 UTC,74,7.1,35
2019-03-12 04:28:44 UTC,75,7.8,36
2019-03-12 04:29:05 UTC,76,7.6,33
2019-03-12 04:29:27 UTC,77,7.6,34
2019-03-12 04:29:49 UTC,78,7.6,35
2019-03-12 04:30:11 UTC,79,7.3,36
2019-03-12 04:30:32 UTC,80,7.3,33
